%YAML 1.1
%TAG !u! tag:unity3d.com,2011:
--- !u!1001 &100100000
Prefab:
  m_ObjectHideFlags: 1
  serializedVersion: 2
  m_Modification:
    m_TransformParent: {fileID: 0}
    m_Modifications: []
    m_RemovedComponents: []
  m_ParentPrefab: {fileID: 0}
  m_RootGameObject: {fileID: 1676874918115416}
  m_IsPrefabParent: 1
--- !u!1 &1125720210672082
GameObject:
  m_ObjectHideFlags: 0
  m_PrefabParentObject: {fileID: 0}
  m_PrefabInternal: {fileID: 100100000}
  serializedVersion: 5
  m_Component:
  - component: {fileID: 4919154682384084}
  - component: {fileID: 8195094281092192258}
  - component: {fileID: 3664157345411618804}
  m_Layer: 31
  m_Name: Layer1
  m_TagString: Untagged
  m_Icon: {fileID: 0}
  m_NavMeshLayer: 0
  m_StaticEditorFlags: 0
  m_IsActive: 1
--- !u!1 &1676874918115416
GameObject:
  m_ObjectHideFlags: 0
  m_PrefabParentObject: {fileID: 0}
  m_PrefabInternal: {fileID: 100100000}
  serializedVersion: 5
  m_Component:
  - component: {fileID: 4988835299918746}
  - component: {fileID: 2569400265524886702}
  m_Layer: 31
  m_Name: Sample Palette
  m_TagString: Untagged
  m_Icon: {fileID: 0}
  m_NavMeshLayer: 0
  m_StaticEditorFlags: 0
  m_IsActive: 1
--- !u!4 &4919154682384084
Transform:
  m_ObjectHideFlags: 1
  m_PrefabParentObject: {fileID: 0}
  m_PrefabInternal: {fileID: 100100000}
  m_GameObject: {fileID: 1125720210672082}
  m_LocalRotation: {x: -0, y: -0, z: -0, w: 1}
  m_LocalPosition: {x: 0, y: 0, z: 0}
  m_LocalScale: {x: 1, y: 1, z: 1}
  m_Children: []
  m_Father: {fileID: 4988835299918746}
  m_RootOrder: 0
  m_LocalEulerAnglesHint: {x: 0, y: 0, z: 0}
--- !u!4 &4988835299918746
Transform:
  m_ObjectHideFlags: 1
  m_PrefabParentObject: {fileID: 0}
  m_PrefabInternal: {fileID: 100100000}
  m_GameObject: {fileID: 1676874918115416}
  m_LocalRotation: {x: 0, y: 0, z: 0, w: 1}
  m_LocalPosition: {x: 0, y: 0, z: 0}
  m_LocalScale: {x: 1, y: 1, z: 1}
  m_Children:
  - {fileID: 4919154682384084}
  m_Father: {fileID: 0}
  m_RootOrder: 0
  m_LocalEulerAnglesHint: {x: 0, y: 0, z: 0}
--- !u!114 &114266010967455342
MonoBehaviour:
  m_ObjectHideFlags: 0
  m_PrefabParentObject: {fileID: 0}
  m_PrefabInternal: {fileID: 0}
  m_GameObject: {fileID: 0}
  m_Enabled: 1
  m_EditorHideFlags: 1
  m_Script: {fileID: 12395, guid: 0000000000000000e000000000000000, type: 0}
  m_Name: Palette Settings
  m_EditorClassIdentifier: 
  cellSizing: 0
--- !u!156049354 &2569400265524886702
Grid:
  m_ObjectHideFlags: 1
  m_PrefabParentObject: {fileID: 0}
  m_PrefabInternal: {fileID: 100100000}
  m_GameObject: {fileID: 1676874918115416}
  m_Enabled: 1
  m_CellSize: {x: 1, y: 1, z: 0}
  m_CellGap: {x: 0, y: 0, z: 0}
  m_CellLayout: 0
  m_CellSwizzle: 0
--- !u!483693784 &3664157345411618804
TilemapRenderer:
  m_ObjectHideFlags: 1
  m_PrefabParentObject: {fileID: 0}
  m_PrefabInternal: {fileID: 100100000}
  m_GameObject: {fileID: 1125720210672082}
  m_Enabled: 0
  m_CastShadows: 0
  m_ReceiveShadows: 0
  m_DynamicOccludee: 0
  m_MotionVectors: 1
  m_LightProbeUsage: 0
  m_ReflectionProbeUsage: 0
  m_Materials:
  - {fileID: 10754, guid: 0000000000000000f000000000000000, type: 0}
  m_StaticBatchInfo:
    firstSubMesh: 0
    subMeshCount: 0
  m_StaticBatchRoot: {fileID: 0}
  m_ProbeAnchor: {fileID: 0}
  m_LightProbeVolumeOverride: {fileID: 0}
  m_ScaleInLightmap: 1
  m_PreserveUVs: 0
  m_IgnoreNormalsForChartDetection: 0
  m_ImportantGI: 0
  m_StitchLightmapSeams: 0
  m_SelectedEditorRenderState: 0
  m_MinimumChartSize: 4
  m_AutoUVMaxDistance: 0.5
  m_AutoUVMaxAngle: 89
  m_LightmapParameters: {fileID: 0}
  m_SortingLayerID: 0
  m_SortingLayer: 0
  m_SortingOrder: 0
  m_ChunkSize: {x: 32, y: 32, z: 32}
  m_MaxChunkCount: 16
  m_MaxFrameAge: 16
  m_SortOrder: 0
  m_MaskInteraction: 0
--- !u!1839735485 &8195094281092192258
Tilemap:
  m_ObjectHideFlags: 1
  m_PrefabParentObject: {fileID: 0}
  m_PrefabInternal: {fileID: 100100000}
  m_GameObject: {fileID: 1125720210672082}
  m_Enabled: 1
  m_Tiles:
  - first: {x: -31, y: 7, z: 0}
    second:
      m_TileIndex: 5
      m_TileSpriteIndex: 20
      m_TileMatrixIndex: 0
      m_TileColorIndex: 7
      m_ObjectToInstantiate: {fileID: 0}
      m_TileFlags: 1
      m_ColliderType: 1
  - first: {x: -31, y: 8, z: 0}
    second:
      m_TileIndex: 4
      m_TileSpriteIndex: 2
      m_TileMatrixIndex: 0
      m_TileColorIndex: 7
      m_ObjectToInstantiate: {fileID: 0}
      m_TileFlags: 1
      m_ColliderType: 1
  - first: {x: -30, y: 8, z: 0}
    second:
      m_TileIndex: 24
      m_TileSpriteIndex: 22
      m_TileMatrixIndex: 0
      m_TileColorIndex: 7
      m_ObjectToInstantiate: {fileID: 0}
      m_TileFlags: 1
      m_ColliderType: 1
  - first: {x: -29, y: 8, z: 0}
    second:
      m_TileIndex: 19
      m_TileSpriteIndex: 3
      m_TileMatrixIndex: 0
      m_TileColorIndex: 7
      m_ObjectToInstantiate: {fileID: 0}
      m_TileFlags: 1
      m_ColliderType: 1
  - first: {x: -27, y: 8, z: 0}
    second:
      m_TileIndex: 18
      m_TileSpriteIndex: 18
      m_TileMatrixIndex: 0
      m_TileColorIndex: 7
      m_ObjectToInstantiate: {fileID: 0}
      m_TileFlags: 1
      m_ColliderType: 1
  - first: {x: -26, y: 8, z: 0}
    second:
      m_TileIndex: 17
      m_TileSpriteIndex: 17
      m_TileMatrixIndex: 0
      m_TileColorIndex: 7
      m_ObjectToInstantiate: {fileID: 0}
      m_TileFlags: 1
      m_ColliderType: 1
  - first: {x: -25, y: 8, z: 0}
    second:
      m_TileIndex: 16
      m_TileSpriteIndex: 16
      m_TileMatrixIndex: 0
      m_TileColorIndex: 7
      m_ObjectToInstantiate: {fileID: 0}
      m_TileFlags: 1
      m_ColliderType: 1
  - first: {x: -24, y: 8, z: 0}
    second:
      m_TileIndex: 7
      m_TileSpriteIndex: 15
      m_TileMatrixIndex: 0
      m_TileColorIndex: 7
      m_ObjectToInstantiate: {fileID: 0}
      m_TileFlags: 1
      m_ColliderType: 1
  - first: {x: -23, y: 8, z: 0}
    second:
      m_TileIndex: 8
      m_TileSpriteIndex: 14
      m_TileMatrixIndex: 0
      m_TileColorIndex: 7
      m_ObjectToInstantiate: {fileID: 0}
      m_TileFlags: 1
      m_ColliderType: 1
  - first: {x: -31, y: 9, z: 0}
    second:
      m_TileIndex: 20
      m_TileSpriteIndex: 4
      m_TileMatrixIndex: 0
      m_TileColorIndex: 7
      m_ObjectToInstantiate: {fileID: 0}
      m_TileFlags: 1
      m_ColliderType: 1
  - first: {x: -29, y: 9, z: 0}
    second:
      m_TileIndex: 21
      m_TileSpriteIndex: 5
      m_TileMatrixIndex: 0
      m_TileColorIndex: 7
      m_ObjectToInstantiate: {fileID: 0}
      m_TileFlags: 1
      m_ColliderType: 1
  - first: {x: -27, y: 9, z: 0}
    second:
      m_TileIndex: 11
      m_TileSpriteIndex: 9
      m_TileMatrixIndex: 0
      m_TileColorIndex: 7
      m_ObjectToInstantiate: {fileID: 0}
      m_TileFlags: 1
      m_ColliderType: 1
  - first: {x: -26, y: 9, z: 0}
    second:
      m_TileIndex: 26
      m_TileSpriteIndex: 7
      m_TileMatrixIndex: 0
      m_TileColorIndex: 7
      m_ObjectToInstantiate: {fileID: 0}
      m_TileFlags: 1
      m_ColliderType: 1
  - first: {x: -25, y: 9, z: 0}
    second:
      m_TileIndex: 12
      m_TileSpriteIndex: 10
      m_TileMatrixIndex: 0
      m_TileColorIndex: 7
      m_ObjectToInstantiate: {fileID: 0}
      m_TileFlags: 1
      m_ColliderType: 1
  - first: {x: -24, y: 9, z: 0}
    second:
      m_TileIndex: 3
      m_TileSpriteIndex: 25
      m_TileMatrixIndex: 0
      m_TileColorIndex: 7
      m_ObjectToInstantiate: {fileID: 0}
      m_TileFlags: 1
      m_ColliderType: 1
  - first: {x: -23, y: 9, z: 0}
    second:
      m_TileIndex: 6
      m_TileSpriteIndex: 6
      m_TileMatrixIndex: 0
      m_TileColorIndex: 7
      m_ObjectToInstantiate: {fileID: 0}
      m_TileFlags: 1
      m_ColliderType: 1
  - first: {x: -31, y: 10, z: 0}
    second:
      m_TileIndex: 22
      m_TileSpriteIndex: 19
      m_TileMatrixIndex: 0
      m_TileColorIndex: 7
      m_ObjectToInstantiate: {fileID: 0}
      m_TileFlags: 1
      m_ColliderType: 1
  - first: {x: -30, y: 10, z: 0}
    second:
      m_TileIndex: 25
      m_TileSpriteIndex: 23
      m_TileMatrixIndex: 0
      m_TileColorIndex: 7
      m_ObjectToInstantiate: {fileID: 0}
      m_TileFlags: 1
      m_ColliderType: 1
  - first: {x: -29, y: 10, z: 0}
    second:
      m_TileIndex: 23
      m_TileSpriteIndex: 21
      m_TileMatrixIndex: 0
      m_TileColorIndex: 7
      m_ObjectToInstantiate: {fileID: 0}
      m_TileFlags: 1
      m_ColliderType: 1
  - first: {x: -27, y: 10, z: 0}
    second:
      m_TileIndex: 13
      m_TileSpriteIndex: 11
      m_TileMatrixIndex: 0
      m_TileColorIndex: 7
      m_ObjectToInstantiate: {fileID: 0}
      m_TileFlags: 1
      m_ColliderType: 1
  - first: {x: -26, y: 10, z: 0}
    second:
      m_TileIndex: 14
      m_TileSpriteIndex: 12
      m_TileMatrixIndex: 0
      m_TileColorIndex: 7
      m_ObjectToInstantiate: {fileID: 0}
      m_TileFlags: 1
      m_ColliderType: 1
  - first: {x: -25, y: 10, z: 0}
    second:
      m_TileIndex: 15
      m_TileSpriteIndex: 13
      m_TileMatrixIndex: 0
      m_TileColorIndex: 7
      m_ObjectToInstantiate: {fileID: 0}
      m_TileFlags: 1
      m_ColliderType: 1
  - first: {x: -24, y: 10, z: 0}
    second:
      m_TileIndex: 10
      m_TileSpriteIndex: 24
      m_TileMatrixIndex: 0
      m_TileColorIndex: 7
      m_ObjectToInstantiate: {fileID: 0}
      m_TileFlags: 1
      m_ColliderType: 1
  - first: {x: -23, y: 10, z: 0}
    second:
      m_TileIndex: 9
      m_TileSpriteIndex: 8
      m_TileMatrixIndex: 0
      m_TileColorIndex: 7
      m_ObjectToInstantiate: {fileID: 0}
      m_TileFlags: 1
      m_ColliderType: 1
  m_AnimatedTiles: {}
  m_TileAssetArray:
  - m_RefCount: 0
    m_Data: {fileID: 0}
  - m_RefCount: 0
    m_Data: {fileID: 0}
  - m_RefCount: 0
    m_Data: {fileID: 0}
  - m_RefCount: 1
    m_Data: {fileID: 11400000, guid: 8cfad4dcd0e554c4e86730c422658b97, type: 2}
  - m_RefCount: 1
    m_Data: {fileID: 11400000, guid: f802535d60443d243b88a71d76f41ab2, type: 2}
  - m_RefCount: 1
    m_Data: {fileID: 11400000, guid: e3047832fc6274c4483188c9f435a128, type: 2}
  - m_RefCount: 1
    m_Data: {fileID: 11400000, guid: fbd4d7d25696c974e9b06731eb297c61, type: 2}
  - m_RefCount: 1
    m_Data: {fileID: 11400000, guid: 53ff000962e09614eb10c435309e9b57, type: 2}
  - m_RefCount: 1
    m_Data: {fileID: 11400000, guid: f16cde6d1b0b78b47854a996b168ce9b, type: 2}
  - m_RefCount: 1
    m_Data: {fileID: 11400000, guid: 44ad0a98301b0cd418706a6b8c63ce69, type: 2}
  - m_RefCount: 1
    m_Data: {fileID: 11400000, guid: 3d82b114255dbfe4fb347a9faa00feb0, type: 2}
  - m_RefCount: 1
    m_Data: {fileID: 11400000, guid: 6daae88af28f5fc49a83a9a06fdaeb84, type: 2}
  - m_RefCount: 1
    m_Data: {fileID: 11400000, guid: bfeab339a78baf942a4c1fb0e81f4709, type: 2}
  - m_RefCount: 1
    m_Data: {fileID: 11400000, guid: 43c86dbf0bc6eb04b914de321511a0d5, type: 2}
  - m_RefCount: 1
    m_Data: {fileID: 11400000, guid: 37d46dfbc12bc3a4e8b31560c47fc1ff, type: 2}
  - m_RefCount: 1
    m_Data: {fileID: 11400000, guid: dbbda5c51b4922b40be9e64e773a1363, type: 2}
  - m_RefCount: 1
    m_Data: {fileID: 11400000, guid: 7b8b0d77e584a93488df857c89542974, type: 2}
  - m_RefCount: 1
    m_Data: {fileID: 11400000, guid: c4a493c13c7c6b845a2e635e80f64f01, type: 2}
  - m_RefCount: 1
    m_Data: {fileID: 11400000, guid: 1f6725c36d630df4b9e16de46f3acca1, type: 2}
  - m_RefCount: 1
    m_Data: {fileID: 11400000, guid: de5252138a789034ead432e7866d20de, type: 2}
  - m_RefCount: 1
    m_Data: {fileID: 11400000, guid: 5b67fe32a3950f042af24a1de520f513, type: 2}
  - m_RefCount: 1
    m_Data: {fileID: 11400000, guid: 0ffc873f38367294a9f843a522a1655f, type: 2}
  - m_RefCount: 1
    m_Data: {fileID: 11400000, guid: 832b2a9df140ba149aaaa85cd84d4053, type: 2}
  - m_RefCount: 1
    m_Data: {fileID: 11400000, guid: c62ba91ce4d0d2c488a2146875b8640f, type: 2}
  - m_RefCount: 1
    m_Data: {fileID: 11400000, guid: 30e7d79cb14d002448c65866d1a0d009, type: 2}
  - m_RefCount: 1
    m_Data: {fileID: 11400000, guid: eaff4ff3cee3473418abcd8b10da3fe0, type: 2}
  - m_RefCount: 1
    m_Data: {fileID: 11400000, guid: c289c01b2cb97434fa563732f861e53b, type: 2}
  m_TileSpriteArray:
  - m_RefCount: 0
    m_Data: {fileID: 0}
  - m_RefCount: 0
    m_Data: {fileID: 0}
  - m_RefCount: 1
    m_Data: {fileID: 21300012, guid: 4b13c11024000f34391cfaa571df9474, type: 3}
  - m_RefCount: 1
    m_Data: {fileID: 21300028, guid: 4b13c11024000f34391cfaa571df9474, type: 3}
  - m_RefCount: 1
    m_Data: {fileID: 21300018, guid: 4b13c11024000f34391cfaa571df9474, type: 3}
  - m_RefCount: 1
    m_Data: {fileID: 21300014, guid: 4b13c11024000f34391cfaa571df9474, type: 3}
  - m_RefCount: 1
    m_Data: {fileID: 21300020, guid: 1f05b3854a800494e9fb5d5927272ec9, type: 3}
  - m_RefCount: 1
    m_Data: {fileID: 21300016, guid: 1f05b3854a800494e9fb5d5927272ec9, type: 3}
  - m_RefCount: 1
    m_Data: {fileID: 21300002, guid: 1f05b3854a800494e9fb5d5927272ec9, type: 3}
  - m_RefCount: 1
    m_Data: {fileID: 21300014, guid: 1f05b3854a800494e9fb5d5927272ec9, type: 3}
  - m_RefCount: 1
    m_Data: {fileID: 21300018, guid: 1f05b3854a800494e9fb5d5927272ec9, type: 3}
  - m_RefCount: 1
    m_Data: {fileID: 21300006, guid: 1f05b3854a800494e9fb5d5927272ec9, type: 3}
  - m_RefCount: 1
    m_Data: {fileID: 21300008, guid: 1f05b3854a800494e9fb5d5927272ec9, type: 3}
  - m_RefCount: 1
    m_Data: {fileID: 21300010, guid: 1f05b3854a800494e9fb5d5927272ec9, type: 3}
  - m_RefCount: 1
    m_Data: {fileID: 21300028, guid: 1f05b3854a800494e9fb5d5927272ec9, type: 3}
  - m_RefCount: 1
    m_Data: {fileID: 21300012, guid: 1f05b3854a800494e9fb5d5927272ec9, type: 3}
  - m_RefCount: 1
    m_Data: {fileID: 21300026, guid: 1f05b3854a800494e9fb5d5927272ec9, type: 3}
  - m_RefCount: 1
    m_Data: {fileID: 21300024, guid: 1f05b3854a800494e9fb5d5927272ec9, type: 3}
  - m_RefCount: 1
    m_Data: {fileID: 21300022, guid: 1f05b3854a800494e9fb5d5927272ec9, type: 3}
  - m_RefCount: 1
    m_Data: {fileID: 21300004, guid: 4b13c11024000f34391cfaa571df9474, type: 3}
  - m_RefCount: 1
    m_Data: {fileID: 21300004, guid: 214f731dfff60594ca162278fa96e49f, type: 3}
  - m_RefCount: 1
    m_Data: {fileID: 21300020, guid: 4b13c11024000f34391cfaa571df9474, type: 3}
  - m_RefCount: 1
    m_Data: {fileID: 21300008, guid: 4b13c11024000f34391cfaa571df9474, type: 3}
  - m_RefCount: 1
    m_Data: {fileID: 21300024, guid: 4b13c11024000f34391cfaa571df9474, type: 3}
  - m_RefCount: 1
    m_Data: {fileID: 21300000, guid: 1f05b3854a800494e9fb5d5927272ec9, type: 3}
  - m_RefCount: 1
    m_Data: {fileID: 21300004, guid: 1f05b3854a800494e9fb5d5927272ec9, type: 3}
  m_TileMatrixArray:
  - m_RefCount: 23
    m_Data:
      e00: 1
      e01: 0
      e02: 0
      e03: 0
      e10: 0
      e11: 1
      e12: 0
      e13: 0
      e20: 0
      e21: 0
      e22: 1
      e23: 0
      e30: 0
      e31: 0
      e32: 0
      e33: 1
  m_TileColorArray:
  - m_RefCount: 0
    m_Data: {r: 0, g: 0, b: 0.010793112, a: 0}
  - m_RefCount: 0
    m_Data: {r: 8.786007e-39, g: 0, b: 21.71306, a: 1e-45}
  - m_RefCount: 0
    m_Data: {r: 8.26661e-40, g: 1.0653011e-38, b: 21.71306, a: 1e-45}
  - m_RefCount: 0
    m_Data: {r: 8.26661e-40, g: 1.0653011e-38, b: 21.71306, a: 1e-45}
  - m_RefCount: 0
    m_Data: {r: 0, g: 0, b: 21.71306, a: 1e-45}
  - m_RefCount: 0
    m_Data: {r: 0, g: 0, b: 21.71306, a: 1e-45}
  - m_RefCount: 0
    m_Data: {r: 8.26661e-40, g: 1.0653011e-38, b: 21.71306, a: 1e-45}
  - m_RefCount: 24
    m_Data: {r: 1, g: 1, b: 1, a: 1}
  - m_RefCount: 0
    m_Data: {r: 2.2e-44, g: 0, b: 0, a: NaN}
  m_AnimationFrameRate: 1
  m_Color: {r: 1, g: 1, b: 1, a: 1}
  m_Origin: {x: -33, y: 0, z: 0}
  m_Size: {x: 33, y: 15, z: 1}
  m_TileAnchor: {x: 0.5, y: 0.5, z: 0}
  m_TileOrientation: 0
  m_TileOrientationMatrix:
    e00: 1
    e01: 0
    e02: 0
    e03: 0
    e10: 0
    e11: 1
    e12: 0
    e13: 0
    e20: 0
    e21: 0
    e22: 1
    e23: 0
    e30: 0
    e31: 0
    e32: 0
    e33: 1
  m_TileRefreshArray:
  - serializedVersion: 1
    m_DirtyIndex: 1
  - serializedVersion: 1
    m_DirtyIndex: 0
  - serializedVersion: 1
    m_DirtyIndex: 0
  - serializedVersion: 1
    m_DirtyIndex: 0
  - serializedVersion: 1
    m_DirtyIndex: 0
  - serializedVersion: 1
    m_DirtyIndex: 0
  - serializedVersion: 1
    m_DirtyIndex: 0
  - serializedVersion: 1
    m_DirtyIndex: 0
  - serializedVersion: 1
    m_DirtyIndex: 0
  - serializedVersion: 1
    m_DirtyIndex: 0
  - serializedVersion: 1
    m_DirtyIndex: 0
  - serializedVersion: 1
    m_DirtyIndex: 0
  - serializedVersion: 1
    m_DirtyIndex: 0
  - serializedVersion: 1
    m_DirtyIndex: 0
  - serializedVersion: 1
    m_DirtyIndex: 0
  - serializedVersion: 1
    m_DirtyIndex: 0
  - serializedVersion: 1
    m_DirtyIndex: 0
  - serializedVersion: 1
    m_DirtyIndex: 0
  - serializedVersion: 1
    m_DirtyIndex: 0
  - serializedVersion: 1
    m_DirtyIndex: 0
  - serializedVersion: 1
    m_DirtyIndex: 0
  - serializedVersion: 1
    m_DirtyIndex: 0
  - serializedVersion: 1
    m_DirtyIndex: 0
  - serializedVersion: 1
    m_DirtyIndex: 0
  - serializedVersion: 1
    m_DirtyIndex: 0
  - serializedVersion: 1
    m_DirtyIndex: 0
  - serializedVersion: 1
    m_DirtyIndex: 0
